\relax 
\providecommand\hyper@newdestlabel[2]{}
\@writefile{toc}{\contentsline {chapter}{\numberline {4}Arhitektura i dizajn sustava}{37}{chapter.4}\protected@file@percent }
\@writefile{lof}{\addvspace {10\p@ }}
\@writefile{lot}{\addvspace {10\p@ }}
\@writefile{lof}{\contentsline {figure}{\numberline {4.1}{\ignorespaces Arhitektura sustava}}{37}{figure.4.1}\protected@file@percent }
\@writefile{lof}{\contentsline {figure}{\numberline {4.2}{\ignorespaces Spring Boot arhitektura}}{38}{figure.4.2}\protected@file@percent }
\@writefile{toc}{\contentsline {section}{\numberline {4.1}Baza podataka}{39}{section.4.1}\protected@file@percent }
\@writefile{toc}{\contentsline {subsection}{\numberline {4.1.1}Opis tablica}{40}{subsection.4.1.1}\protected@file@percent }
\@writefile{toc}{\contentsline {subsection}{\numberline {4.1.2}Dijagram baze podataka}{44}{subsection.4.1.2}\protected@file@percent }
\@writefile{lof}{\contentsline {figure}{\numberline {4.3}{\ignorespaces Dijagram baze podataka}}{44}{figure.4.3}\protected@file@percent }
\@writefile{toc}{\contentsline {section}{\numberline {4.2}Dijagram razreda}{45}{section.4.2}\protected@file@percent }
\@writefile{lof}{\contentsline {figure}{\numberline {4.4}{\ignorespaces Dijagram razreda - dio Controllers}}{45}{figure.4.4}\protected@file@percent }
\newlabel{fig:kontroleri}{{4.4}{45}{Dijagram razreda - dio Controllers}{figure.4.4}{}}
\@writefile{lof}{\contentsline {figure}{\numberline {4.5}{\ignorespaces Dijagram razreda - dio DTO}}{46}{figure.4.5}\protected@file@percent }
\newlabel{fig:dto}{{4.5}{46}{Dijagram razreda - dio DTO}{figure.4.5}{}}
\@writefile{lof}{\contentsline {figure}{\numberline {4.6}{\ignorespaces Dijagram razreda - dio Service}}{47}{figure.4.6}\protected@file@percent }
\newlabel{fig:service}{{4.6}{47}{Dijagram razreda - dio Service}{figure.4.6}{}}
\@writefile{lof}{\contentsline {figure}{\numberline {4.7}{\ignorespaces Dijagram razreda - dio Domain}}{48}{figure.4.7}\protected@file@percent }
\newlabel{fig:domain}{{4.7}{48}{Dijagram razreda - dio Domain}{figure.4.7}{}}
\@writefile{lof}{\contentsline {figure}{\numberline {4.8}{\ignorespaces Dijagram razreda - dio Repository}}{49}{figure.4.8}\protected@file@percent }
\newlabel{fig:repository}{{4.8}{49}{Dijagram razreda - dio Repository}{figure.4.8}{}}
\@writefile{lof}{\contentsline {figure}{\numberline {4.9}{\ignorespaces Dijagram razreda - dio Security}}{50}{figure.4.9}\protected@file@percent }
\newlabel{fig:security}{{4.9}{50}{Dijagram razreda - dio Security}{figure.4.9}{}}
\@writefile{toc}{\contentsline {section}{\numberline {4.3}Dijagram stanja}{51}{section.4.3}\protected@file@percent }
\@writefile{lof}{\contentsline {figure}{\numberline {4.10}{\ignorespaces Dijagram stanja}}{51}{figure.4.10}\protected@file@percent }
\newlabel{fig:state}{{4.10}{51}{Dijagram stanja}{figure.4.10}{}}
\@writefile{toc}{\contentsline {section}{\numberline {4.4}Dijagram aktivnosti}{52}{section.4.4}\protected@file@percent }
\@writefile{lof}{\contentsline {figure}{\numberline {4.11}{\ignorespaces Dijagram aktivnosti}}{53}{figure.4.11}\protected@file@percent }
\newlabel{fig:activity}{{4.11}{53}{Dijagram aktivnosti}{figure.4.11}{}}
\@writefile{toc}{\contentsline {section}{\numberline {4.5}Dijagram komponenti}{54}{section.4.5}\protected@file@percent }
\@writefile{lof}{\contentsline {figure}{\numberline {4.12}{\ignorespaces Dijagram komponenti}}{54}{figure.4.12}\protected@file@percent }
\newlabel{fig:component}{{4.12}{54}{Dijagram komponenti}{figure.4.12}{}}
\@setckpt{Arhitektura}{
\setcounter{page}{55}
\setcounter{equation}{0}
\setcounter{enumi}{2}
\setcounter{enumii}{3}
\setcounter{enumiii}{3}
\setcounter{enumiv}{0}
\setcounter{footnote}{0}
\setcounter{mpfootnote}{0}
\setcounter{part}{0}
\setcounter{chapter}{4}
\setcounter{section}{5}
\setcounter{subsection}{0}
\setcounter{subsubsection}{0}
\setcounter{paragraph}{0}
\setcounter{subparagraph}{0}
\setcounter{figure}{12}
\setcounter{table}{0}
\setcounter{parentequation}{0}
\setcounter{Item}{131}
\setcounter{Hfootnote}{0}
\setcounter{bookmark@seq@number}{15}
\setcounter{float@type}{4}
\setcounter{section@level}{0}
}
