\relax 
\providecommand\hyper@newdestlabel[2]{}
\@writefile{toc}{\contentsline {chapter}{Dodatak: Prikaz aktivnosti grupe}{81}{chapter*.6}\protected@file@percent }
\@writefile{lot}{\contentsline {table}{\numberline {6.0}{}}{84}{Item.149}\protected@file@percent }
\@writefile{lof}{\contentsline {figure}{\numberline {6.1}{\ignorespaces Dijagram pregleda promjena na grani main}}{86}{figure.6.1}\protected@file@percent }
\newlabel{fig:changes}{{6.1}{86}{Dijagram pregleda promjena na grani main}{figure.6.1}{}}
\@writefile{lof}{\contentsline {figure}{\numberline {6.2}{\ignorespaces Dijagram pregleda promjena na grani main}}{87}{figure.6.2}\protected@file@percent }
\newlabel{fig:changess}{{6.2}{87}{Dijagram pregleda promjena na grani main}{figure.6.2}{}}
\@writefile{lof}{\contentsline {figure}{\numberline {6.3}{\ignorespaces Dijagram pregleda promjena na grani main}}{87}{figure.6.3}\protected@file@percent }
\newlabel{fig:changesss}{{6.3}{87}{Dijagram pregleda promjena na grani main}{figure.6.3}{}}
\@setckpt{Dodatak}{
\setcounter{page}{88}
\setcounter{equation}{0}
\setcounter{enumi}{11}
\setcounter{enumii}{3}
\setcounter{enumiii}{3}
\setcounter{enumiv}{0}
\setcounter{footnote}{0}
\setcounter{mpfootnote}{0}
\setcounter{part}{0}
\setcounter{chapter}{6}
\setcounter{section}{0}
\setcounter{subsection}{0}
\setcounter{subsubsection}{0}
\setcounter{paragraph}{0}
\setcounter{subparagraph}{0}
\setcounter{figure}{3}
\setcounter{table}{0}
\setcounter{parentequation}{0}
\setcounter{Item}{149}
\setcounter{Hfootnote}{0}
\setcounter{bookmark@seq@number}{26}
\setcounter{float@type}{4}
\setcounter{section@level}{0}
}
