\relax 
\providecommand\hyper@newdestlabel[2]{}
\@writefile{toc}{\contentsline {chapter}{\numberline {5}Implementacija i korisničko sučelje}{55}{chapter.5}\protected@file@percent }
\@writefile{lof}{\addvspace {10\p@ }}
\@writefile{lot}{\addvspace {10\p@ }}
\@writefile{toc}{\contentsline {section}{\numberline {5.1}Korištene tehnologije i alati}{55}{section.5.1}\protected@file@percent }
\@writefile{toc}{\contentsline {section}{\numberline {5.2}Ispitivanje programskog rješenja}{57}{section.5.2}\protected@file@percent }
\@writefile{toc}{\contentsline {subsection}{\numberline {5.2.1}Ispitivanje komponenti}{57}{subsection.5.2.1}\protected@file@percent }
\@writefile{lof}{\contentsline {figure}{\numberline {5.1}{\ignorespaces Izvorni kod 1. testa}}{58}{figure.5.1}\protected@file@percent }
\newlabel{fig:kontroleri}{{5.1}{58}{Izvorni kod 1. testa}{figure.5.1}{}}
\@writefile{lof}{\contentsline {figure}{\numberline {5.2}{\ignorespaces Rezultat izvođenja 1. testa - prolaz}}{58}{figure.5.2}\protected@file@percent }
\newlabel{fig:kontroleri}{{5.2}{58}{Rezultat izvođenja 1. testa - prolaz}{figure.5.2}{}}
\@writefile{lof}{\contentsline {figure}{\numberline {5.3}{\ignorespaces Izvorni kod 2. testa}}{59}{figure.5.3}\protected@file@percent }
\newlabel{fig:kontroleri}{{5.3}{59}{Izvorni kod 2. testa}{figure.5.3}{}}
\@writefile{lof}{\contentsline {figure}{\numberline {5.4}{\ignorespaces Rezultat izvođenja 2. testa - prolaz}}{59}{figure.5.4}\protected@file@percent }
\newlabel{fig:kontroleri}{{5.4}{59}{Rezultat izvođenja 2. testa - prolaz}{figure.5.4}{}}
\@writefile{lof}{\contentsline {figure}{\numberline {5.5}{\ignorespaces Izvorni kod 3. testa}}{60}{figure.5.5}\protected@file@percent }
\newlabel{fig:kontroleri}{{5.5}{60}{Izvorni kod 3. testa}{figure.5.5}{}}
\@writefile{lof}{\contentsline {figure}{\numberline {5.6}{\ignorespaces Rezultat izvođenja 3. testa - prolaz}}{60}{figure.5.6}\protected@file@percent }
\newlabel{fig:kontroleri}{{5.6}{60}{Rezultat izvođenja 3. testa - prolaz}{figure.5.6}{}}
\@writefile{lof}{\contentsline {figure}{\numberline {5.7}{\ignorespaces Izvorni kod 4. testa}}{61}{figure.5.7}\protected@file@percent }
\newlabel{fig:kontroleri}{{5.7}{61}{Izvorni kod 4. testa}{figure.5.7}{}}
\@writefile{lof}{\contentsline {figure}{\numberline {5.8}{\ignorespaces Rezultat izvođenja 4. testa - prolaz}}{61}{figure.5.8}\protected@file@percent }
\newlabel{fig:kontroleri}{{5.8}{61}{Rezultat izvođenja 4. testa - prolaz}{figure.5.8}{}}
\@writefile{lof}{\contentsline {figure}{\numberline {5.9}{\ignorespaces Izvorni kod 5. testa}}{62}{figure.5.9}\protected@file@percent }
\newlabel{fig:kontroleri}{{5.9}{62}{Izvorni kod 5. testa}{figure.5.9}{}}
\@writefile{lof}{\contentsline {figure}{\numberline {5.10}{\ignorespaces Rezultat izvođenja 5. testa - prolaz}}{62}{figure.5.10}\protected@file@percent }
\newlabel{fig:kontroleri}{{5.10}{62}{Rezultat izvođenja 5. testa - prolaz}{figure.5.10}{}}
\@writefile{lof}{\contentsline {figure}{\numberline {5.11}{\ignorespaces Izvorni kod 6. testa}}{63}{figure.5.11}\protected@file@percent }
\newlabel{fig:kontroleri}{{5.11}{63}{Izvorni kod 6. testa}{figure.5.11}{}}
\@writefile{lof}{\contentsline {figure}{\numberline {5.12}{\ignorespaces Rezultat izvođenja 6. testa - prolaz}}{63}{figure.5.12}\protected@file@percent }
\newlabel{fig:kontroleri}{{5.12}{63}{Rezultat izvođenja 6. testa - prolaz}{figure.5.12}{}}
\@writefile{toc}{\contentsline {subsection}{\numberline {5.2.2}Ispitivanje sustava}{64}{subsection.5.2.2}\protected@file@percent }
\@writefile{lof}{\contentsline {figure}{\numberline {5.13}{\ignorespaces Test1}}{64}{figure.5.13}\protected@file@percent }
\newlabel{fig:test1}{{5.13}{64}{Test1}{figure.5.13}{}}
\@writefile{lof}{\contentsline {figure}{\numberline {5.14}{\ignorespaces Test1Rez}}{65}{figure.5.14}\protected@file@percent }
\newlabel{fig:test1rez}{{5.14}{65}{Test1Rez}{figure.5.14}{}}
\@writefile{lof}{\contentsline {figure}{\numberline {5.15}{\ignorespaces Test2}}{66}{figure.5.15}\protected@file@percent }
\newlabel{fig:test2}{{5.15}{66}{Test2}{figure.5.15}{}}
\@writefile{lof}{\contentsline {figure}{\numberline {5.16}{\ignorespaces Test2Rez}}{67}{figure.5.16}\protected@file@percent }
\newlabel{fig:test2rez}{{5.16}{67}{Test2Rez}{figure.5.16}{}}
\@writefile{lof}{\contentsline {figure}{\numberline {5.17}{\ignorespaces Test3}}{68}{figure.5.17}\protected@file@percent }
\newlabel{fig:test3}{{5.17}{68}{Test3}{figure.5.17}{}}
\@writefile{lof}{\contentsline {figure}{\numberline {5.18}{\ignorespaces Test3Rez}}{69}{figure.5.18}\protected@file@percent }
\newlabel{fig:test3rez}{{5.18}{69}{Test3Rez}{figure.5.18}{}}
\@writefile{lof}{\contentsline {figure}{\numberline {5.19}{\ignorespaces Test4}}{70}{figure.5.19}\protected@file@percent }
\newlabel{fig:test4}{{5.19}{70}{Test4}{figure.5.19}{}}
\@writefile{lof}{\contentsline {figure}{\numberline {5.20}{\ignorespaces Test4Rez}}{71}{figure.5.20}\protected@file@percent }
\newlabel{fig:test4rez}{{5.20}{71}{Test4Rez}{figure.5.20}{}}
\@writefile{toc}{\contentsline {section}{\numberline {5.3}Dijagram razmještaja}{72}{section.5.3}\protected@file@percent }
\@writefile{lof}{\contentsline {figure}{\numberline {5.21}{\ignorespaces Dijagram razmještaja}}{72}{figure.5.21}\protected@file@percent }
\newlabel{fig:deployment}{{5.21}{72}{Dijagram razmještaja}{figure.5.21}{}}
\@writefile{toc}{\contentsline {section}{\numberline {5.4}Upute za puštanje u pogon}{73}{section.5.4}\protected@file@percent }
\@writefile{lof}{\contentsline {figure}{\numberline {5.22}{\ignorespaces Izgled sučelja za spajanje na in-memory bazu podataka}}{74}{figure.5.22}\protected@file@percent }
\newlabel{fig:pr1}{{5.22}{74}{Izgled sučelja za spajanje na in-memory bazu podataka}{figure.5.22}{}}
\@writefile{lof}{\contentsline {figure}{\numberline {5.23}{\ignorespaces Pokretanje backenda}}{74}{figure.5.23}\protected@file@percent }
\newlabel{fig:pr2}{{5.23}{74}{Pokretanje backenda}{figure.5.23}{}}
\@writefile{lof}{\contentsline {figure}{\numberline {5.24}{\ignorespaces Uspješno pokrenut backend}}{75}{figure.5.24}\protected@file@percent }
\newlabel{fig:pr3}{{5.24}{75}{Uspješno pokrenut backend}{figure.5.24}{}}
\@writefile{lof}{\contentsline {figure}{\numberline {5.25}{\ignorespaces Instaliranje svih potrebnih ovisnosti}}{75}{figure.5.25}\protected@file@percent }
\newlabel{fig:pr4}{{5.25}{75}{Instaliranje svih potrebnih ovisnosti}{figure.5.25}{}}
\@writefile{lof}{\contentsline {figure}{\numberline {5.26}{\ignorespaces Pokretanje frontenda}}{75}{figure.5.26}\protected@file@percent }
\newlabel{fig:pr5}{{5.26}{75}{Pokretanje frontenda}{figure.5.26}{}}
\@setckpt{Implementacija}{
\setcounter{page}{76}
\setcounter{equation}{0}
\setcounter{enumi}{2}
\setcounter{enumii}{3}
\setcounter{enumiii}{3}
\setcounter{enumiv}{0}
\setcounter{footnote}{0}
\setcounter{mpfootnote}{0}
\setcounter{part}{0}
\setcounter{chapter}{5}
\setcounter{section}{4}
\setcounter{subsection}{0}
\setcounter{subsubsection}{0}
\setcounter{paragraph}{0}
\setcounter{subparagraph}{0}
\setcounter{figure}{26}
\setcounter{table}{0}
\setcounter{parentequation}{0}
\setcounter{Item}{131}
\setcounter{Hfootnote}{0}
\setcounter{bookmark@seq@number}{22}
\setcounter{float@type}{4}
\setcounter{section@level}{0}
}
