\relax 
\providecommand\hyper@newdestlabel[2]{}
\@writefile{toc}{\contentsline {chapter}{\numberline {2}Opis projektnog zadatka}{6}{chapter.2}\protected@file@percent }
\@writefile{lof}{\addvspace {10\p@ }}
\@writefile{lot}{\addvspace {10\p@ }}
\@writefile{lof}{\contentsline {figure}{\numberline {2.1}{\ignorespaces Primjer slične mobilne aplikacije "Doniranje krvi"}}{10}{figure.2.1}\protected@file@percent }
\newlabel{fig:pr1}{{2.1}{10}{Primjer slične mobilne aplikacije "Doniranje krvi"}{figure.2.1}{}}
\@writefile{lof}{\contentsline {figure}{\numberline {2.2}{\ignorespaces Primjer slične mobilne aplikacije "Doniranje krvi"}}{11}{figure.2.2}\protected@file@percent }
\newlabel{fig:pr2}{{2.2}{11}{Primjer slične mobilne aplikacije "Doniranje krvi"}{figure.2.2}{}}
\@writefile{lof}{\contentsline {figure}{\numberline {2.3}{\ignorespaces Primjer slične mobilne aplikacije "Bloodkad"}}{12}{figure.2.3}\protected@file@percent }
\newlabel{fig:pr3}{{2.3}{12}{Primjer slične mobilne aplikacije "Bloodkad"}{figure.2.3}{}}
\@setckpt{Opis_projektnog_zadatka}{
\setcounter{page}{13}
\setcounter{equation}{0}
\setcounter{enumi}{0}
\setcounter{enumii}{0}
\setcounter{enumiii}{0}
\setcounter{enumiv}{0}
\setcounter{footnote}{0}
\setcounter{mpfootnote}{0}
\setcounter{part}{0}
\setcounter{chapter}{2}
\setcounter{section}{0}
\setcounter{subsection}{0}
\setcounter{subsubsection}{0}
\setcounter{paragraph}{0}
\setcounter{subparagraph}{0}
\setcounter{figure}{3}
\setcounter{table}{0}
\setcounter{parentequation}{0}
\setcounter{Item}{0}
\setcounter{Hfootnote}{0}
\setcounter{bookmark@seq@number}{2}
\setcounter{float@type}{4}
\setcounter{section@level}{0}
}
