\relax 
\providecommand\hyper@newdestlabel[2]{}
\@writefile{toc}{\contentsline {chapter}{\numberline {3}Specifikacija programske potpore}{13}{chapter.3}\protected@file@percent }
\@writefile{lof}{\addvspace {10\p@ }}
\@writefile{lot}{\addvspace {10\p@ }}
\@writefile{toc}{\contentsline {section}{\numberline {3.1}Funkcionalni zahtjevi}{13}{section.3.1}\protected@file@percent }
\@writefile{toc}{\contentsline {subsection}{\numberline {3.1.1}Obrasci uporabe}{16}{subsection.3.1.1}\protected@file@percent }
\@writefile{toc}{\contentsline {subsubsection}{Opis obrazaca uporabe}{16}{subsubsection*.2}\protected@file@percent }
\@writefile{toc}{\contentsline {subsubsection}{Dijagrami obrazaca uporabe}{24}{subsubsection*.3}\protected@file@percent }
\@writefile{lof}{\contentsline {figure}{\numberline {3.1}{\ignorespaces Dijagram obrasca uporabe, funkcionalnost neregistriranog korisnika}}{24}{figure.3.1}\protected@file@percent }
\@writefile{lof}{\contentsline {figure}{\numberline {3.2}{\ignorespaces Dijagram obrasca uporabe, funkcionalnost registriranog korisnika}}{25}{figure.3.2}\protected@file@percent }
\@writefile{lof}{\contentsline {figure}{\numberline {3.3}{\ignorespaces Dijagram obrasca uporabe, funkcionalnost donora}}{25}{figure.3.3}\protected@file@percent }
\@writefile{lof}{\contentsline {figure}{\numberline {3.4}{\ignorespaces Dijagram obrasca uporabe, funkcionalnost djelatnika}}{26}{figure.3.4}\protected@file@percent }
\@writefile{lof}{\contentsline {figure}{\numberline {3.5}{\ignorespaces Dijagram obrasca uporabe, funkcionalnost administratora}}{27}{figure.3.5}\protected@file@percent }
\@writefile{toc}{\contentsline {subsection}{\numberline {3.1.2}Sekvencijski dijagrami}{28}{subsection.3.1.2}\protected@file@percent }
\@writefile{lof}{\contentsline {figure}{\numberline {3.6}{\ignorespaces Sekvencijski dijagram za UC5}}{28}{figure.3.6}\protected@file@percent }
\@writefile{lof}{\contentsline {figure}{\numberline {3.7}{\ignorespaces Sekvencijski dijagram za UC9}}{30}{figure.3.7}\protected@file@percent }
\@writefile{lof}{\contentsline {figure}{\numberline {3.8}{\ignorespaces Sekvencijski dijagram za UC11}}{32}{figure.3.8}\protected@file@percent }
\@writefile{lof}{\contentsline {figure}{\numberline {3.9}{\ignorespaces Sekvencijski dijagram za UC12}}{34}{figure.3.9}\protected@file@percent }
\@writefile{toc}{\contentsline {section}{\numberline {3.2}Ostali zahtjevi}{36}{section.3.2}\protected@file@percent }
\@setckpt{Specifikacija_programske_potpore}{
\setcounter{page}{37}
\setcounter{equation}{0}
\setcounter{enumi}{2}
\setcounter{enumii}{3}
\setcounter{enumiii}{3}
\setcounter{enumiv}{0}
\setcounter{footnote}{0}
\setcounter{mpfootnote}{0}
\setcounter{part}{0}
\setcounter{chapter}{3}
\setcounter{section}{2}
\setcounter{subsection}{0}
\setcounter{subsubsection}{0}
\setcounter{paragraph}{0}
\setcounter{subparagraph}{0}
\setcounter{figure}{9}
\setcounter{table}{0}
\setcounter{parentequation}{0}
\setcounter{Item}{131}
\setcounter{Hfootnote}{0}
\setcounter{bookmark@seq@number}{7}
\setcounter{float@type}{4}
\setcounter{section@level}{0}
}
